<svg xmlns="http://www.w3.org/2000/svg" width="6" height="39.001" viewBox="0 0 6 39.001">
  <g id="line6" transform="translate(-1067 -456)">
    <path id="Path_5_Copy_5" data-name="Path 5 Copy 5" d="M0,.541,30.5.459" transform="translate(1070.541 464) rotate(90)" fill="none" stroke="rgba(55,57,126,0.5)" stroke-linecap="square" stroke-miterlimit="10" stroke-width="1" stroke-dasharray="4 4"/>
    <circle id="Oval_Copy_2" data-name="Oval Copy 2" cx="3" cy="3" r="3" transform="translate(1067 456)" fill="#37397e"/>
  </g>
</svg>
